[
  {
    "id": "D95",
    "name": "อริญชย์ ตรงสันติพงศ์",
    "time": "13:00"
  },
  {
    "id": "D23",
    "name": "ชาณิสสา ตรีทิพไกวัลพร",
    "time": "13:00"
  },
  {
    "id": "D33",
    "name": "ณัติชัย สูติพันธ์วิหาร",
    "time": "13:00"
  },
  {
    "id": "D90",
    "name": "สิปปกร เจนคุณาวัฒน์",
    "time": "13:00"
  },
  {
    "id": "D24",
    "name": "ชินวัตร อินทรสุระ",
    "time": "13:00"
  },
  {
    "id": "D4",
    "name": "Peerasorn Hemsart",
    "time": "13:00"
  },
  {
    "id": "D88",
    "name": "สิทธิณัฐ ไวยสารา",
    "time": "13:00"
  },
  {
    "id": "D79",
    "name": "วุฒินันท์ ชัยศิริวิเรนทร์",
    "time": "13:00"
  },
  {
    "id": "D6",
    "name": "Puttiwat Wanna",
    "time": "13:00"
  },
  {
    "id": "D99",
    "name": "อิทธิวัฒน์ สุขุมธนากุล",
    "time": "13:00"
  },
  {
    "id": "D75",
    "name": "วาชิต ชัยสิทธิ์ศักดิ์",
    "time": "13:00"
  },
  {
    "id": "D71",
    "name": "วราทัศน์ พานทองถาวร",
    "time": "13:00"
  },
  {
    "id": "D98",
    "name": "อาชวินทร์ ธิรักษพันธ์",
    "time": "13:00"
  },
  {
    "id": "D34",
    "name": "ตรีวิชญ์ มุทิตากุล",
    "time": "13:00"
  },
  {
    "id": "D28",
    "name": "ณัชพร พลกิจสราญ",
    "time": "13:00"
  },
  {
    "id": "D22",
    "name": "ชวิศ สกุลยืนยง",
    "time": "13:00"
  },
  {
    "id": "D47",
    "name": "นายเกรียงไกร พวงมณี",
    "time": "13:00"
  },
  {
    "id": "D26",
    "name": "ฐิติวัสส์ ทองบ่อ",
    "time": "13:00"
  },
  {
    "id": "D63",
    "name": "ภณ จิตต์นิลวงศ์",
    "time": "13:00"
  },
  {
    "id": "D80",
    "name": "ศิระกร ลำใย",
    "time": "13:00"
  },
  {
    "id": "D20",
    "name": "ชวกร สุภีปรี",
    "time": "14:20"
  },
  {
    "id": "D70",
    "name": "รักษิต รักษาสัตย์",
    "time": "14:20"
  },
  {
    "id": "D21",
    "name": "ชวาล เพียรสัตยานนท์",
    "time": "14:20"
  },
  {
    "id": "D42",
    "name": "ธัญญ์ธวัช สุวรรณฉัตรกุล",
    "time": "14:20"
  },
  {
    "id": "D32",
    "name": "ณัฐพนธ์ ธรรมอาชีพ",
    "time": "14:20"
  },
  {
    "id": "D30",
    "name": "ณัฏฐพัชร์ อนุวัฒนานนท์",
    "time": "14:20"
  },
  {
    "id": "D43",
    "name": "ธิปก ธรรมกุลางกูร",
    "time": "14:20"
  },
  {
    "id": "D59",
    "name": "พิริยพงษ์ เลาพงษ์สิต",
    "time": "14:20"
  },
  {
    "id": "D31",
    "name": "ณัฐชนน พลอยพลาย",
    "time": "14:20"
  },
  {
    "id": "D65",
    "name": "ภานุกร สุนทรเวชพงษ์",
    "time": "14:20"
  },
  {
    "id": "D17",
    "name": "เจษฎากร เขียวเม่น",
    "time": "14:20"
  },
  {
    "id": "D14",
    "name": "จิรภัทร คูพาณิชย์",
    "time": "14:20"
  },
  {
    "id": "D94",
    "name": "อภิรมย์ ยะบุญ",
    "time": "14:20"
  },
  {
    "id": "D76",
    "name": "วิตตัญญูตา แม้ประสาท",
    "time": "14:20"
  },
  {
    "id": "D89",
    "name": "สิทธิภัทร เกิดสำอางค์",
    "time": "14:20"
  },
  {
    "id": "D10",
    "name": "กรัณฑ์ ทวีสิทธิ์",
    "time": "14:20"
  },
  {
    "id": "D39",
    "name": "ธนกร ภาแสงเทียน",
    "time": "14:20"
  },
  {
    "id": "D83",
    "name": "ศุภวิช อัศวกนกศิลป์",
    "time": "14:20"
  },
  {
    "id": "D72",
    "name": "วริทธิ์ ประสาทฤทธา",
    "time": "14:20"
  },
  {
    "id": "D91",
    "name": "สิรพัชร์ กรวยศิริวงศ์",
    "time": "14:20"
  },
  {
    "id": "D35",
    "name": "เตชินท์ ศุภผล",
    "time": "15:40"
  },
  {
    "id": "D37",
    "name": "ไท ตันติพิวัฒนสกุล",
    "time": "15:40"
  },
  {
    "id": "D3",
    "name": "Chutmongkol Chuasaard",
    "time": "15:40"
  },
  {
    "id": "D46",
    "name": "นายกิตธิศักดิ์ พิมพ์โนนทอง",
    "time": "15:40"
  },
  {
    "id": "D85",
    "name": "ศุภิสรา จุฑาธรรมพิทักษ์",
    "time": "15:40"
  },
  {
    "id": "D5",
    "name": "Phakhin Deesee",
    "time": "15:40"
  },
  {
    "id": "D16",
    "name": "จิรายุ เหลืองวิลาวัณย์",
    "time": "15:40"
  },
  {
    "id": "D36",
    "name": "ทศพล เมณฑ์กูล",
    "time": "15:40"
  },
  {
    "id": "D92",
    "name": "สุรวิชญ์ ลาภรัตนไตร",
    "time": "15:40"
  },
  {
    "id": "D1",
    "name": "Chawit U-viengchai",
    "time": "15:40"
  },
  {
    "id": "D78",
    "name": "วิสาข์ เผ่าทองจีน",
    "time": "15:40"
  },
  {
    "id": "D96",
    "name": "อริยะ อารีย์โชติ",
    "time": "15:40"
  },
  {
    "id": "D19",
    "name": "ชนัญญา รื่นพิทักษ์",
    "time": "15:40"
  },
  {
    "id": "D38",
    "name": "ธนกร ประยูรกิตติกุล",
    "time": "15:40"
  },
  {
    "id": "D62",
    "name": "ภคนนท์ ปันติสวัสดิ์",
    "time": "15:40"
  },
  {
    "id": "D15",
    "name": "จิรภิญญา งามแสงจันทร์ฉาย",
    "time": "15:40"
  },
  {
    "id": "D69",
    "name": "ยสุรสีห์ สายสิงห์ทอง",
    "time": "15:40"
  },
  {
    "id": "D82",
    "name": "ศุภณัฐ วรรณโรจน์",
    "time": "15:40"
  },
  {
    "id": "D60",
    "name": "พิศลย์ เรือนอินทร์",
    "time": "15:40"
  },
  {
    "id": "D9",
    "name": "Wachirawit-Kaewlomsup",
    "time": "15:40"
  },
  {
    "id": "D11",
    "name": "กิตติณัฐ เอี่ยมสำอางค์",
    "time": "15:40"
  }
]