[
  {
    "number": 37,
    "key": "🐹 E480F8",
    "name": "ชริดา เสนา",
    "id": "G1",
    "time": "8:00"
  },
  {
    "number": 10,
    "key": "🦊 C8D887",
    "name": "ณัชชา จิระนคร",
    "id": "G2",
    "time": "8:00"
  },
  {
    "number": 24,
    "key": "🐽 B2488F",
    "name": "ณัฐชา หฤษฎ์วงศ์",
    "id": "G3",
    "time": "8:00"
  },
  {
    "number": 22,
    "key": "🐻 604821",
    "name": "ณัฐวัณย์ ไชยมงคล",
    "id": "G4",
    "time": "8:00"
  },
  {
    "number": 16,
    "key": "🦊 D78F0E",
    "name": "ณิชกมล บำรุงเชาว์เกษม",
    "id": "G5",
    "time": "8:00"
  },
  {
    "number": 1,
    "key": "🐼 70051C",
    "name": "เตชทัต บุญรักษา",
    "id": "G6",
    "time": "8:00"
  },
  {
    "number": 15,
    "key": "🦁 2868FE",
    "name": "ทินวุฒิ ลิวานัค",
    "id": "G7",
    "time": "8:00"
  },
  {
    "number": 4,
    "key": "🐼 ACF3B7",
    "name": "ธนกร หงษา",
    "id": "G8",
    "time": "8:00"
  },
  {
    "number": 21,
    "key": "🐼 E81C63",
    "name": "ธนัญชัย รักชนาท",
    "id": "G9",
    "time": "8:00"
  },
  {
    "number": 19,
    "key": "🐻 8D28B2",
    "name": "ธนาพร ชาญชัยพล",
    "id": "G10",
    "time": "8:00"
  },
  {
    "number": 23,
    "key": "🐽 76E4D8",
    "name": "ธัญพิชชา วัฒนชีวโนปกรณ์",
    "id": "G11",
    "time": "8:00"
  },
  {
    "number": 7,
    "key": "🦊 E633C2",
    "name": "ธีรภัทร์ การสมงาม",
    "id": "G12",
    "time": "8:00"
  },
  {
    "number": 8,
    "key": "🐸 2C4265",
    "name": "นันท์นภัส พิบูลวิทยารักษ์",
    "id": "G13",
    "time": "8:00"
  },
  {
    "number": 11,
    "key": "🐸 D1A56A",
    "name": "บุณยกร วัฒนลี",
    "id": "G14",
    "time": "8:00"
  },
  {
    "number": 5,
    "key": "🦁 AF60FB",
    "name": "บุศรินทร์ สูญสิ้นภัย",
    "id": "G15",
    "time": "9:30"
  },
  {
    "number": 36,
    "key": "🐶 D265C0",
    "name": "ปัญญวัฒน์ เอื้ออิฐผล",
    "id": "G16",
    "time": "9:30"
  },
  {
    "number": 25,
    "key": "🐸 EF4EAC",
    "name": "ปารณีย์ สกุลวิจิตร์สินธุ",
    "id": "G17",
    "time": "9:30"
  },
  {
    "number": 34,
    "key": "🐽 673315",
    "name": "ปิยนาถ จันทะแจ้ง",
    "id": "G18",
    "time": "9:30"
  },
  {
    "number": 20,
    "key": "🐱 97F656",
    "name": "พัณณ์ชิตา วิเศษธัญโรจน์",
    "id": "G19",
    "time": "9:30"
  },
  {
    "number": 17,
    "key": "🐰 A9FC5D",
    "name": "พีรวิชญ์ ลิ้มสมบัติอนันท์",
    "id": "G20",
    "time": "9:30"
  },
  {
    "number": 29,
    "key": "🐽 67CF91",
    "name": "ภัททิยา มั่นคง",
    "id": "G21",
    "time": "9:30"
  },
  {
    "number": 12,
    "key": "🐹 21123D",
    "name": "ภัทราวรรณ พุ่มนิคม",
    "id": "G22",
    "time": "9:30"
  },
  {
    "number": 28,
    "key": "🦁 559264",
    "name": "ภัทวริน บ่อสมบัติ",
    "id": "G23",
    "time": "9:30"
  },
  {
    "number": 30,
    "key": "🐰 7CE5EE",
    "name": "ภาณุวัฒน์ แจ่มรุจี",
    "id": "G24",
    "time": "9:30"
  },
  {
    "number": 33,
    "key": "🐻 9C6144",
    "name": "ภาวิกา คำภาวงค์",
    "id": "G25",
    "time": "9:30"
  },
  {
    "number": 2,
    "key": "🐽 9449F2",
    "name": "รัฐศาสตร์ มิ่งแก้ว",
    "id": "G26",
    "time": "9:30"
  },
  {
    "number": 14,
    "key": "🐮 0BFEC4",
    "name": "วชิราพรรณ อุทัยเลี้ยง",
    "id": "G27",
    "time": "9:30"
  },
  {
    "number": 26,
    "key": "🐭 5C143E",
    "name": "วิริญา ผ่านสำแดง",
    "id": "G28",
    "time": "9:30"
  },
  {
    "number": 32,
    "key": "🐭 F230E7",
    "name": "สกาย แสงสุระ",
    "id": "G29",
    "time": "12:30"
  },
  {
    "number": 9,
    "key": "🐱 F1E688",
    "name": "สรวิชญ์ ศรีสุภาสิตานนท์",
    "id": "G30",
    "time": "12:30"
  },
  {
    "number": 35,
    "key": "🐷 1BD796",
    "name": "สิริน ตันติวรสุนทร",
    "id": "G31",
    "time": "12:30"
  },
  {
    "number": 3,
    "key": "🐱 2E6187",
    "name": "สุทธิกานต์ วาศิฏฐิภาคย์",
    "id": "G32",
    "time": "12:30"
  },
  {
    "number": 18,
    "key": "🐨 35700C",
    "name": "สุวิชญา สุริยมงคล",
    "id": "G33",
    "time": "12:30"
  },
  {
    "number": 27,
    "key": "🦁 5587D4",
    "name": "อภิชญา สินลักษณทิพย์",
    "id": "G34",
    "time": "12:30"
  },
  {
    "number": 6,
    "key": "🐭 2F788A",
    "name": "อภิญญา วิญญูชัย",
    "id": "G35",
    "time": "12:30"
  },
  {
    "number": 13,
    "key": "🦁 0AD25B",
    "name": "อาทิมา หนูสุข",
    "id": "G36",
    "time": "12:30"
  },
  {
    "number": 38,
    "key": "🐰 6DFEFB",
    "name": "อุบลวรรณา กิระวิทยา",
    "id": "G37",
    "time": "12:30"
  }
]
